%YAML 1.1
%TAG !u! tag:unity3d.com,2011:
--- !u!114 &11400000
MonoBehaviour:
  m_ObjectHideFlags: 0
  m_CorrespondingSourceObject: {fileID: 0}
  m_PrefabInternal: {fileID: 0}
  m_GameObject: {fileID: 0}
  m_Enabled: 1
  m_EditorHideFlags: 0
  m_Script: {fileID: 11500000, guid: 157d16b6acac7574da63ec3e25a18dd6, type: 3}
  m_Name: DeepOcean
  m_EditorClassIdentifier: 
  biomeName: DeepOcean
  precipitation: 0
  temperature: 0
  altitude: 0
  biomeColor: {r: 0, g: 0, b: 0.56078434, a: 0}
